; Engine configuration file.
; It's best edited using the editor UI and not directly,
; since the parameters that go here are not all obvious.
;
; Format:
;   [section] ; section goes between []
;   param=value ; assign values to parameters

config_version=4

_global_script_classes=[ {
"base": "Actor",
"class": "AIActor",
"language": "GDScript",
"path": "res://scripts/classes/actors/ai_actor.gd"
}, {
"base": "AIActor",
"class": "AIShip",
"language": "GDScript",
"path": "res://scripts/classes/actors/ai_ship.gd"
}, {
"base": "Node",
"class": "AIState",
"language": "GDScript",
"path": "res://scripts/classes/actors/ai_states/ai_state.gd"
}, {
"base": "AIActor",
"class": "AITurret",
"language": "GDScript",
"path": "res://scripts/classes/actors/ai_turret.gd"
}, {
"base": "KinematicBody",
"class": "Actor",
"language": "GDScript",
"path": "res://scripts/classes/actors/actor.gd"
}, {
"base": "Spatial",
"class": "ActorControlledTurret",
"language": "GDScript",
"path": "res://scripts/classes/actors/actor_controlled_turret.gd"
}, {
"base": "Camera",
"class": "BackgroundCamera",
"language": "GDScript",
"path": "res://scripts/utils/background_camera.gd"
}, {
"base": "Control",
"class": "HUDMarker",
"language": "GDScript",
"path": "res://scenes/gui/ship_hud/marker/hud_marker.gd"
}, {
"base": "Spatial",
"class": "MapSceneRoot",
"language": "GDScript",
"path": "res://scenes/maps/map.gd"
}, {
"base": "Node",
"class": "Mission",
"language": "GDScript",
"path": "res://scripts/classes/mission/mission.gd"
}, {
"base": "AnimationPlayer",
"class": "MissionAnimationPlayer",
"language": "GDScript",
"path": "res://scripts/classes/mission/mission_animationplayer.gd"
}, {
"base": "Node",
"class": "MissionObjective",
"language": "GDScript",
"path": "res://scripts/classes/mission/mission_objective.gd"
}, {
"base": "MissionObjective",
"class": "MissionObjectiveDummy",
"language": "GDScript",
"path": "res://scripts/classes/mission/objectives/objective_dummy.gd"
}, {
"base": "MissionObjective",
"class": "MissionObjectiveKillChildren",
"language": "GDScript",
"path": "res://scripts/classes/mission/objectives/objective_kill_children.gd"
}, {
"base": "MissionObjective",
"class": "MissionObjectiveKillSpecific",
"language": "GDScript",
"path": "res://scripts/classes/mission/objectives/objective_kill_specific.gd"
}, {
"base": "MissionObjective",
"class": "MissionObjectiveProtect",
"language": "GDScript",
"path": "res://scripts/classes/mission/objectives/objective_protect.gd"
}, {
"base": "MissionObjective",
"class": "MissionObjectiveReach",
"language": "GDScript",
"path": "res://scripts/classes/mission/objectives/objective_reach.gd"
}, {
"base": "MissionObjective",
"class": "MissionObjectiveWait",
"language": "GDScript",
"path": "res://scripts/classes/mission/objectives/objective_wait.gd"
}, {
"base": "Node",
"class": "MissionStage",
"language": "GDScript",
"path": "res://scripts/classes/mission/mission_stage.gd"
}, {
"base": "MissionStage",
"class": "MissionStageEnd",
"language": "GDScript",
"path": "res://scripts/classes/mission/mission_stage_end.gd"
}, {
"base": "MissionStageEnd",
"class": "MissionStageFail",
"language": "GDScript",
"path": "res://scripts/classes/mission/mission_stage_fail.gd"
}, {
"base": "Label",
"class": "ObjectiveLabel",
"language": "GDScript",
"path": "res://scenes/gui/mission_hud/objective_label.gd"
}, {
"base": "Actor",
"class": "PlayerShip",
"language": "GDScript",
"path": "res://scripts/classes/actors/player_ship.gd"
}, {
"base": "RayCast",
"class": "Projectile",
"language": "GDScript",
"path": "res://scripts/classes/projectiles/projectile.gd"
}, {
"base": "Projectile",
"class": "ProjectileBeam",
"language": "GDScript",
"path": "res://scripts/classes/projectiles/projectile_beam.gd"
}, {
"base": "Projectile",
"class": "ProjectileHoming",
"language": "GDScript",
"path": "res://scripts/classes/projectiles/projectile_homing.gd"
}, {
"base": "Particles",
"class": "ProjectileParticles",
"language": "GDScript",
"path": "res://scripts/classes/projectiles/mesh_particles.gd"
}, {
"base": "Spatial",
"class": "ProjectilePool",
"language": "GDScript",
"path": "res://scripts/classes/projectiles/projectile_pool.gd"
}, {
"base": "AIActor",
"class": "Protege",
"language": "GDScript",
"path": "res://scripts/classes/actors/protege.gd"
}, {
"base": "Particles",
"class": "RCSThruster",
"language": "GDScript",
"path": "res://scripts/classes/misc/rcs_thruster.gd"
}, {
"base": "Node",
"class": "SceneChanger",
"language": "GDScript",
"path": "res://scripts/utils/scene_changer.gd"
}, {
"base": "CanvasLayer",
"class": "ShipHUD",
"language": "GDScript",
"path": "res://scenes/gui/ship_hud/hud.gd"
}, {
"base": "Reference",
"class": "WAT",
"language": "GDScript",
"path": "res://addons/WAT/runner/namespace.gd"
}, {
"base": "Node",
"class": "WATTest",
"language": "GDScript",
"path": "res://addons/WAT/runner/test.gd"
}, {
"base": "Node",
"class": "Weapon",
"language": "GDScript",
"path": "res://scripts/classes/misc/weapon.gd"
} ]
_global_script_class_icons={
"AIActor": "",
"AIShip": "",
"AIState": "",
"AITurret": "",
"Actor": "",
"ActorControlledTurret": "",
"BackgroundCamera": "",
"HUDMarker": "",
"MapSceneRoot": "",
"Mission": "res://icons/mission.svg",
"MissionAnimationPlayer": "res://icons/mission_animationplayer.svg",
"MissionObjective": "res://icons/mission.svg",
"MissionObjectiveDummy": "",
"MissionObjectiveKillChildren": "",
"MissionObjectiveKillSpecific": "",
"MissionObjectiveProtect": "",
"MissionObjectiveReach": "",
"MissionObjectiveWait": "",
"MissionStage": "res://icons/mission.svg",
"MissionStageEnd": "",
"MissionStageFail": "",
"ObjectiveLabel": "",
"PlayerShip": "",
"Projectile": "",
"ProjectileBeam": "",
"ProjectileHoming": "",
"ProjectileParticles": "",
"ProjectilePool": "",
"Protege": "",
"RCSThruster": "",
"SceneChanger": "",
"ShipHUD": "",
"WAT": "",
"WATTest": "",
"Weapon": ""
}

[WAT]

Results_Directory="res://tests/results/WAT"
Minimize_Window_When_Running_Tests=false
Display=8
TestStrategy={

}
Tags=PoolStringArray(  )
Test_Directory="res://tests"

[application]

config/name="godot-spacefight"
run/main_scene="res://scenes/scene_changer.tscn"
config/icon="res://icon.png"

[autoload]

SystemInputHandler="*res://scripts/singletons/SystemInputHandler.gd"
MultiplayerHandler="*res://scripts/singletons/MultiplayerHandler.gd"
ResHandler="*res://scripts/singletons/ResHandler.gd"
ConfigHandler="*res://scripts/singletons/ConfigHandler.gd"
WebSocketHandler="*res://scripts/singletons/WebSocketHandler.gd"

[debug]

gdscript/warnings/return_value_discarded=false
gdscript/warnings/unsafe_property_access=true
gdscript/warnings/unsafe_method_access=true
gdscript/warnings/unsafe_call_argument=true

[editor]

convert_text_resources_to_binary_on_export=true

[editor_plugins]

enabled=PoolStringArray( "WAT" )

[input]

roll_left={
"deadzone": 0.5,
"events": [ Object(InputEventKey,"resource_local_to_scene":false,"resource_name":"","device":0,"alt":false,"shift":false,"control":false,"meta":false,"command":false,"pressed":false,"scancode":81,"unicode":0,"echo":false,"script":null)
 ]
}
roll_right={
"deadzone": 0.5,
"events": [ Object(InputEventKey,"resource_local_to_scene":false,"resource_name":"","device":0,"alt":false,"shift":false,"control":false,"meta":false,"command":false,"pressed":false,"scancode":69,"unicode":0,"echo":false,"script":null)
 ]
}
accelerate={
"deadzone": 0.5,
"events": [ Object(InputEventKey,"resource_local_to_scene":false,"resource_name":"","device":0,"alt":false,"shift":false,"control":false,"meta":false,"command":false,"pressed":false,"scancode":87,"unicode":0,"echo":false,"script":null)
 ]
}
decelerate={
"deadzone": 0.5,
"events": [ Object(InputEventKey,"resource_local_to_scene":false,"resource_name":"","device":0,"alt":false,"shift":false,"control":false,"meta":false,"command":false,"pressed":false,"scancode":83,"unicode":0,"echo":false,"script":null)
 ]
}
strafe_left={
"deadzone": 0.5,
"events": [ Object(InputEventKey,"resource_local_to_scene":false,"resource_name":"","device":0,"alt":false,"shift":false,"control":false,"meta":false,"command":false,"pressed":false,"scancode":65,"unicode":0,"echo":false,"script":null)
 ]
}
strafe_right={
"deadzone": 0.5,
"events": [ Object(InputEventKey,"resource_local_to_scene":false,"resource_name":"","device":0,"alt":false,"shift":false,"control":false,"meta":false,"command":false,"pressed":false,"scancode":68,"unicode":0,"echo":false,"script":null)
 ]
}
strafe_up={
"deadzone": 0.5,
"events": [ Object(InputEventKey,"resource_local_to_scene":false,"resource_name":"","device":0,"alt":false,"shift":false,"control":false,"meta":false,"command":false,"pressed":false,"scancode":32,"unicode":0,"echo":false,"script":null)
 ]
}
strafe_down={
"deadzone": 0.5,
"events": [ Object(InputEventKey,"resource_local_to_scene":false,"resource_name":"","device":0,"alt":false,"shift":false,"control":false,"meta":false,"command":false,"pressed":false,"scancode":16777238,"unicode":0,"echo":false,"script":null)
 ]
}
run={
"deadzone": 0.5,
"events": [ Object(InputEventKey,"resource_local_to_scene":false,"resource_name":"","device":0,"alt":false,"shift":false,"control":false,"meta":false,"command":false,"pressed":false,"scancode":16777237,"unicode":0,"echo":false,"script":null)
 ]
}
lock_target={
"deadzone": 0.5,
"events": [ Object(InputEventMouseButton,"resource_local_to_scene":false,"resource_name":"","device":0,"alt":false,"shift":false,"control":false,"meta":false,"command":false,"button_mask":0,"position":Vector2( 0, 0 ),"global_position":Vector2( 0, 0 ),"factor":1.0,"button_index":3,"pressed":false,"doubleclick":false,"script":null)
 ]
}
release_target={
"deadzone": 0.5,
"events": [ Object(InputEventKey,"resource_local_to_scene":false,"resource_name":"","device":0,"alt":false,"shift":false,"control":false,"meta":false,"command":false,"pressed":false,"scancode":88,"unicode":0,"echo":false,"script":null)
 ]
}
fire={
"deadzone": 0.5,
"events": [ Object(InputEventMouseButton,"resource_local_to_scene":false,"resource_name":"","device":0,"alt":false,"shift":false,"control":false,"meta":false,"command":false,"button_mask":0,"position":Vector2( 0, 0 ),"global_position":Vector2( 0, 0 ),"factor":1.0,"button_index":1,"pressed":false,"doubleclick":false,"script":null)
 ]
}
secondary_fire={
"deadzone": 0.5,
"events": [ Object(InputEventMouseButton,"resource_local_to_scene":false,"resource_name":"","device":0,"alt":false,"shift":false,"control":false,"meta":false,"command":false,"button_mask":0,"position":Vector2( 0, 0 ),"global_position":Vector2( 0, 0 ),"factor":1.0,"button_index":2,"pressed":false,"doubleclick":false,"script":null)
 ]
}
toggle_console={
"deadzone": 0.5,
"events": [ Object(InputEventKey,"resource_local_to_scene":false,"resource_name":"","device":0,"alt":false,"shift":false,"control":false,"meta":false,"command":false,"pressed":false,"scancode":35,"unicode":0,"echo":false,"script":null)
 ]
}
toggle_flight_model={
"deadzone": 0.5,
"events": [ Object(InputEventKey,"resource_local_to_scene":false,"resource_name":"","device":0,"alt":false,"shift":false,"control":false,"meta":false,"command":false,"pressed":false,"scancode":71,"unicode":0,"echo":false,"script":null)
 ]
}
release_camera={
"deadzone": 0.5,
"events": [ Object(InputEventKey,"resource_local_to_scene":false,"resource_name":"","device":0,"alt":false,"shift":false,"control":false,"meta":false,"command":false,"pressed":false,"scancode":16777240,"unicode":0,"echo":false,"script":null)
 ]
}
weapon_cycle_up={
"deadzone": 0.5,
"events": [ Object(InputEventMouseButton,"resource_local_to_scene":false,"resource_name":"","device":0,"alt":false,"shift":false,"control":false,"meta":false,"command":false,"button_mask":0,"position":Vector2( 0, 0 ),"global_position":Vector2( 0, 0 ),"factor":1.0,"button_index":4,"pressed":false,"doubleclick":false,"script":null)
 ]
}
weapon_cycle_down={
"deadzone": 0.5,
"events": [ Object(InputEventMouseButton,"resource_local_to_scene":false,"resource_name":"","device":0,"alt":false,"shift":false,"control":false,"meta":false,"command":false,"button_mask":0,"position":Vector2( 0, 0 ),"global_position":Vector2( 0, 0 ),"factor":1.0,"button_index":5,"pressed":false,"doubleclick":false,"script":null)
 ]
}

[logging]

file_logging/enable_file_logging=true

[rendering]

quality/filters/anisotropic_filter_level=8
quality/directional_shadow/size=8192
quality/shadows/filter_mode=2
environment/default_environment="res://environments/default_env.tres"
