[gd_resource type="GradientTexture" load_steps=2 format=2]

[sub_resource type="Gradient" id=1]
offsets = PoolRealArray( 0.0449173, 0.295508, 0.58156, 1 )
colors = PoolColorArray( 1, 0, 0, 1, 1, 0.539062, 0, 1, 1, 1, 1, 1, 0, 0, 0, 1 )

[resource]
gradient = SubResource( 1 )
