[gd_scene load_steps=3 format=2]

[ext_resource path="res://scripts/classes/projectiles/mesh_particles.gd" type="Script" id=1]

[sub_resource type="CubeMesh" id=1]

[node name="specification" type="Spatial"]

[node name="MeshInstance" type="MeshInstance" parent="."]
mesh = SubResource( 1 )
material/0 = null

[node name="normal_particles" type="Particles" parent="MeshInstance"]
script = ExtResource( 1 )

[node name="spark_particles" type="Particles" parent="."]
emitting = false
