[gd_scene load_steps=6 format=2]

[ext_resource path="res://materials/hull_grey.tres" type="Material" id=1]
[ext_resource path="res://materials/red_energy.tres" type="Material" id=2]

[sub_resource type="ArrayMesh" id=1]
surfaces/0 = {
"aabb": AABB( -1.49212, -0.974328, -2.12048, 2.98425, 1.97645, 4.24097 ),
"array_data": PoolByteArray( 0, 0, 0, 0, 247, 189, 0, 60, 15, 48, 140, 0, 149, 59, 2, 60, 149, 187, 0, 60, 15, 48, 140, 0, 247, 61, 0, 0, 247, 189, 0, 60, 15, 48, 140, 0, 0, 0, 2, 60, 14, 189, 0, 60, 15, 48, 140, 0, 247, 61, 0, 0, 0, 0, 0, 60, 116, 48, 15, 0, 149, 59, 2, 60, 149, 59, 0, 60, 116, 48, 15, 0, 247, 61, 0, 0, 247, 61, 0, 60, 116, 48, 15, 0, 14, 61, 2, 60, 0, 0, 0, 60, 116, 48, 15, 0, 0, 0, 0, 0, 247, 61, 0, 60, 241, 48, 116, 0, 149, 187, 2, 60, 149, 59, 0, 60, 241, 48, 116, 0, 247, 189, 0, 0, 247, 61, 0, 60, 241, 48, 116, 0, 0, 0, 2, 60, 14, 61, 0, 60, 241, 48, 116, 0, 247, 189, 0, 0, 0, 0, 0, 60, 140, 48, 241, 0, 149, 187, 2, 60, 149, 187, 0, 60, 140, 48, 241, 0, 247, 189, 0, 0, 247, 189, 0, 60, 140, 48, 241, 0, 14, 189, 2, 60, 0, 0, 0, 60, 140, 48, 241, 0, 0, 0, 203, 187, 0, 0, 0, 60, 0, 129, 0, 0, 247, 189, 203, 187, 61, 64, 0, 60, 0, 129, 0, 0, 247, 189, 203, 187, 0, 0, 0, 60, 0, 129, 0, 0, 0, 0, 203, 187, 61, 64, 0, 60, 0, 129, 0, 0, 149, 187, 2, 60, 149, 187, 0, 60, 0, 127, 0, 0, 0, 0, 2, 60, 0, 0, 0, 60, 0, 127, 0, 0, 0, 0, 2, 60, 14, 189, 0, 60, 0, 127, 0, 0, 14, 189, 2, 60, 0, 0, 0, 60, 0, 127, 0, 0, 149, 187, 2, 60, 149, 59, 0, 60, 0, 127, 0, 0, 0, 0, 2, 60, 14, 61, 0, 60, 0, 127, 0, 0, 14, 61, 2, 60, 0, 0, 0, 60, 0, 127, 0, 0, 149, 59, 2, 60, 149, 59, 0, 60, 0, 127, 0, 0, 149, 59, 2, 60, 149, 187, 0, 60, 0, 127, 0, 0, 247, 189, 203, 187, 61, 192, 0, 60, 0, 129, 0, 0, 0, 0, 203, 187, 61, 192, 0, 60, 0, 129, 0, 0, 247, 61, 203, 187, 0, 0, 0, 60, 0, 129, 0, 0, 247, 61, 203, 187, 61, 192, 0, 60, 0, 129, 0, 0, 247, 61, 203, 187, 61, 64, 0, 60, 0, 129, 0, 0, 247, 189, 0, 0, 0, 0, 0, 60, 129, 0, 0, 0, 247, 189, 203, 187, 61, 192, 0, 60, 129, 0, 0, 0, 247, 189, 203, 187, 0, 0, 0, 60, 129, 0, 0, 0, 247, 189, 0, 0, 247, 189, 0, 60, 129, 0, 0, 0, 247, 189, 0, 0, 247, 61, 0, 60, 129, 0, 0, 0, 247, 189, 203, 187, 0, 0, 0, 60, 129, 0, 0, 0, 247, 189, 203, 187, 61, 64, 0, 60, 129, 0, 0, 0, 247, 189, 0, 0, 0, 0, 0, 60, 129, 0, 0, 0, 149, 187, 2, 60, 149, 59, 0, 60, 140, 48, 15, 0, 247, 189, 0, 0, 0, 0, 0, 60, 140, 48, 15, 0, 247, 189, 0, 0, 247, 61, 0, 60, 140, 48, 15, 0, 14, 189, 2, 60, 0, 0, 0, 60, 140, 48, 15, 0, 0, 0, 0, 0, 247, 61, 0, 60, 0, 68, 106, 0, 247, 189, 203, 187, 61, 64, 0, 60, 0, 68, 106, 0, 0, 0, 203, 187, 61, 64, 0, 60, 0, 68, 106, 0, 247, 189, 0, 0, 247, 61, 0, 60, 0, 68, 106, 0, 247, 61, 0, 0, 247, 61, 0, 60, 0, 68, 106, 0, 0, 0, 203, 187, 61, 64, 0, 60, 0, 68, 106, 0, 247, 61, 203, 187, 61, 64, 0, 60, 0, 68, 106, 0, 0, 0, 0, 0, 247, 61, 0, 60, 0, 68, 106, 0, 149, 59, 2, 60, 149, 59, 0, 60, 15, 48, 116, 0, 0, 0, 0, 0, 247, 61, 0, 60, 15, 48, 116, 0, 247, 61, 0, 0, 247, 61, 0, 60, 15, 48, 116, 0, 0, 0, 2, 60, 14, 61, 0, 60, 15, 48, 116, 0, 247, 61, 0, 0, 0, 0, 0, 60, 127, 0, 0, 0, 247, 61, 203, 187, 61, 64, 0, 60, 127, 0, 0, 0, 247, 61, 203, 187, 0, 0, 0, 60, 127, 0, 0, 0, 247, 61, 0, 0, 247, 61, 0, 60, 127, 0, 0, 0, 247, 61, 0, 0, 247, 189, 0, 60, 127, 0, 0, 0, 247, 61, 203, 187, 0, 0, 0, 60, 127, 0, 0, 0, 247, 61, 203, 187, 61, 192, 0, 60, 127, 0, 0, 0, 247, 61, 0, 0, 0, 0, 0, 60, 127, 0, 0, 0, 149, 59, 2, 60, 149, 187, 0, 60, 116, 48, 241, 0, 247, 61, 0, 0, 0, 0, 0, 60, 116, 48, 241, 0, 247, 61, 0, 0, 247, 189, 0, 60, 116, 48, 241, 0, 14, 61, 2, 60, 0, 0, 0, 60, 116, 48, 241, 0, 0, 0, 0, 0, 247, 189, 0, 60, 0, 68, 150, 0, 247, 61, 203, 187, 61, 192, 0, 60, 0, 68, 150, 0, 0, 0, 203, 187, 61, 192, 0, 60, 0, 68, 150, 0, 247, 61, 0, 0, 247, 189, 0, 60, 0, 68, 150, 0, 247, 189, 0, 0, 247, 189, 0, 60, 0, 68, 150, 0, 0, 0, 203, 187, 61, 192, 0, 60, 0, 68, 150, 0, 247, 189, 203, 187, 61, 192, 0, 60, 0, 68, 150, 0, 0, 0, 0, 0, 247, 189, 0, 60, 0, 68, 150, 0, 149, 187, 2, 60, 149, 187, 0, 60, 241, 48, 140, 0, 0, 0, 0, 0, 247, 189, 0, 60, 241, 48, 140, 0, 247, 189, 0, 0, 247, 189, 0, 60, 241, 48, 140, 0, 0, 0, 2, 60, 14, 189, 0, 60, 241, 48, 140, 0 ),
"array_index_data": PoolByteArray( 0, 0, 2, 0, 1, 0, 3, 0, 0, 0, 1, 0, 4, 0, 6, 0, 5, 0, 7, 0, 4, 0, 5, 0, 8, 0, 10, 0, 9, 0, 11, 0, 8, 0, 9, 0, 12, 0, 14, 0, 13, 0, 15, 0, 12, 0, 13, 0, 16, 0, 18, 0, 17, 0, 19, 0, 16, 0, 17, 0, 20, 0, 22, 0, 21, 0, 23, 0, 20, 0, 21, 0, 24, 0, 23, 0, 21, 0, 24, 0, 21, 0, 25, 0, 25, 0, 21, 0, 26, 0, 25, 0, 26, 0, 27, 0, 21, 0, 22, 0, 28, 0, 21, 0, 28, 0, 26, 0, 16, 0, 30, 0, 29, 0, 16, 0, 29, 0, 18, 0, 31, 0, 32, 0, 30, 0, 31, 0, 30, 0, 16, 0, 31, 0, 16, 0, 19, 0, 33, 0, 31, 0, 19, 0, 34, 0, 36, 0, 35, 0, 34, 0, 35, 0, 37, 0, 38, 0, 40, 0, 39, 0, 38, 0, 39, 0, 41, 0, 42, 0, 44, 0, 43, 0, 42, 0, 43, 0, 45, 0, 46, 0, 48, 0, 47, 0, 46, 0, 47, 0, 49, 0, 50, 0, 52, 0, 51, 0, 50, 0, 51, 0, 53, 0, 54, 0, 56, 0, 55, 0, 54, 0, 55, 0, 57, 0, 58, 0, 60, 0, 59, 0, 58, 0, 59, 0, 61, 0, 62, 0, 64, 0, 63, 0, 62, 0, 63, 0, 65, 0, 66, 0, 68, 0, 67, 0, 66, 0, 67, 0, 69, 0, 70, 0, 72, 0, 71, 0, 70, 0, 71, 0, 73, 0, 74, 0, 76, 0, 75, 0, 74, 0, 75, 0, 77, 0, 78, 0, 80, 0, 79, 0, 78, 0, 79, 0, 81, 0 ),
"blend_shape_data": [  ],
"format": 98051,
"index_count": 144,
"material": ExtResource( 1 ),
"primitive": 4,
"skeleton_aabb": [  ],
"vertex_count": 82
}

[sub_resource type="ArrayMesh" id=2]
surfaces/0 = {
"aabb": AABB( -0.0963727, -0.914061, 0.287367, 0.192745, 0.85505, 0.783591 ),
"array_data": PoolByteArray( 0, 0, 90, 182, 151, 57, 0, 60, 241, 96, 81, 0, 194, 169, 141, 171, 153, 52, 0, 60, 241, 96, 81, 0, 203, 172, 90, 182, 128, 57, 0, 60, 241, 96, 81, 0, 0, 0, 141, 171, 202, 52, 0, 60, 241, 96, 81, 0, 0, 0, 90, 182, 151, 57, 0, 60, 233, 72, 101, 0, 42, 174, 79, 187, 44, 60, 0, 60, 233, 72, 101, 0, 0, 0, 79, 187, 72, 60, 0, 60, 233, 72, 101, 0, 203, 172, 90, 182, 128, 57, 0, 60, 233, 72, 101, 0, 194, 41, 141, 171, 153, 52, 0, 60, 15, 96, 81, 0, 0, 0, 90, 182, 151, 57, 0, 60, 15, 96, 81, 0, 203, 44, 90, 182, 128, 57, 0, 60, 15, 96, 81, 0, 0, 0, 141, 171, 202, 52, 0, 60, 15, 96, 81, 0, 42, 46, 79, 187, 44, 60, 0, 60, 23, 72, 101, 0, 0, 0, 90, 182, 151, 57, 0, 60, 23, 72, 101, 0, 0, 0, 79, 187, 72, 60, 0, 60, 23, 72, 101, 0, 203, 44, 90, 182, 128, 57, 0, 60, 23, 72, 101, 0 ),
"array_index_data": PoolByteArray( 0, 0, 2, 0, 1, 0, 3, 0, 0, 0, 1, 0, 4, 0, 6, 0, 5, 0, 4, 0, 5, 0, 7, 0, 8, 0, 10, 0, 9, 0, 8, 0, 9, 0, 11, 0, 12, 0, 14, 0, 13, 0, 15, 0, 12, 0, 13, 0 ),
"blend_shape_data": [  ],
"format": 98051,
"index_count": 24,
"material": ExtResource( 2 ),
"primitive": 4,
"skeleton_aabb": [  ],
"vertex_count": 16
}
surfaces/1 = {
"aabb": AABB( -1.25565, -1, -1.25565, 2.51129, 1.20624, 2.50565 ),
"array_data": PoolByteArray( 0, 0, 141, 171, 123, 54, 0, 60, 231, 95, 80, 0, 19, 177, 99, 30, 115, 52, 0, 60, 231, 95, 80, 0, 175, 177, 141, 171, 163, 53, 0, 60, 231, 95, 80, 0, 0, 0, 99, 30, 75, 53, 0, 60, 231, 95, 80, 0, 65, 186, 90, 182, 0, 0, 0, 60, 176, 96, 240, 0, 241, 179, 99, 30, 241, 179, 0, 60, 176, 96, 240, 0, 97, 185, 90, 182, 97, 185, 0, 60, 176, 96, 240, 0, 75, 181, 99, 30, 0, 0, 0, 60, 176, 96, 240, 0, 0, 0, 0, 188, 0, 0, 0, 60, 0, 129, 0, 0, 136, 187, 0, 188, 136, 59, 0, 60, 0, 129, 0, 0, 5, 189, 0, 188, 0, 0, 0, 60, 0, 129, 0, 0, 0, 0, 0, 188, 135, 60, 0, 60, 0, 129, 0, 0, 145, 180, 0, 188, 46, 60, 0, 60, 0, 129, 0, 0, 157, 181, 0, 188, 141, 60, 0, 60, 0, 129, 0, 0, 103, 180, 79, 187, 238, 59, 0, 60, 94, 37, 75, 0, 107, 180, 90, 182, 229, 57, 0, 60, 94, 37, 75, 0, 114, 181, 79, 187, 83, 60, 0, 60, 94, 37, 75, 0, 218, 178, 90, 182, 86, 57, 0, 60, 94, 37, 75, 0, 136, 187, 0, 188, 136, 187, 0, 60, 0, 129, 0, 0, 0, 0, 0, 188, 5, 189, 0, 60, 0, 129, 0, 0, 65, 186, 90, 182, 0, 0, 0, 60, 154, 69, 230, 0, 136, 187, 0, 188, 136, 187, 0, 60, 154, 69, 230, 0, 5, 189, 0, 188, 0, 0, 0, 60, 154, 69, 230, 0, 97, 185, 90, 182, 97, 185, 0, 60, 154, 69, 230, 0, 136, 187, 0, 188, 136, 59, 0, 60, 154, 69, 26, 0, 65, 186, 90, 182, 0, 0, 0, 60, 154, 69, 26, 0, 5, 189, 0, 188, 0, 0, 0, 60, 154, 69, 26, 0, 97, 185, 90, 182, 97, 57, 0, 60, 154, 69, 26, 0, 241, 179, 99, 30, 241, 51, 0, 60, 176, 96, 16, 0, 65, 186, 90, 182, 0, 0, 0, 60, 176, 96, 16, 0, 97, 185, 90, 182, 97, 57, 0, 60, 176, 96, 16, 0, 75, 181, 99, 30, 0, 0, 0, 60, 176, 96, 16, 0, 28, 176, 141, 171, 60, 52, 0, 60, 94, 52, 66, 0, 107, 180, 90, 182, 229, 57, 0, 60, 94, 52, 66, 0, 218, 178, 90, 182, 86, 57, 0, 60, 94, 52, 66, 0, 175, 177, 141, 171, 163, 53, 0, 60, 94, 52, 66, 0, 136, 187, 0, 188, 136, 187, 0, 60, 230, 69, 154, 0, 0, 0, 90, 182, 65, 186, 0, 60, 230, 69, 154, 0, 0, 0, 0, 188, 5, 189, 0, 60, 230, 69, 154, 0, 97, 185, 90, 182, 97, 185, 0, 60, 230, 69, 154, 0, 241, 179, 99, 30, 241, 179, 0, 60, 240, 96, 176, 0, 0, 0, 90, 182, 65, 186, 0, 60, 240, 96, 176, 0, 97, 185, 90, 182, 97, 185, 0, 60, 240, 96, 176, 0, 0, 0, 99, 30, 75, 181, 0, 60, 240, 96, 176, 0, 107, 180, 90, 182, 229, 57, 0, 60, 229, 66, 104, 0, 136, 187, 0, 188, 136, 59, 0, 60, 229, 66, 104, 0, 157, 181, 0, 188, 141, 60, 0, 60, 229, 66, 104, 0, 97, 185, 90, 182, 97, 57, 0, 60, 229, 66, 104, 0, 107, 180, 90, 182, 229, 57, 0, 60, 241, 97, 79, 0, 241, 179, 99, 30, 241, 51, 0, 60, 241, 97, 79, 0, 97, 185, 90, 182, 97, 57, 0, 60, 241, 97, 79, 0, 175, 177, 141, 171, 163, 53, 0, 60, 241, 97, 79, 0, 19, 177, 99, 30, 115, 52, 0, 60, 241, 97, 79, 0, 42, 174, 79, 187, 44, 60, 0, 60, 0, 126, 0, 0, 0, 0, 79, 187, 197, 60, 0, 60, 0, 126, 0, 0, 0, 0, 79, 187, 72, 60, 0, 60, 0, 126, 0, 0, 103, 180, 79, 187, 238, 59, 0, 60, 0, 126, 0, 0, 114, 181, 79, 187, 83, 60, 0, 60, 0, 126, 0, 0, 0, 0, 0, 188, 0, 61, 0, 60, 224, 69, 101, 0, 114, 181, 79, 187, 83, 60, 0, 60, 224, 69, 101, 0, 157, 181, 0, 188, 141, 60, 0, 60, 224, 69, 101, 0, 0, 0, 79, 187, 197, 60, 0, 60, 224, 69, 101, 0, 194, 169, 141, 171, 153, 52, 0, 60, 0, 129, 0, 0, 175, 177, 141, 171, 163, 53, 0, 60, 0, 129, 0, 0, 28, 176, 141, 171, 60, 52, 0, 60, 0, 129, 0, 0, 0, 0, 141, 171, 202, 52, 0, 60, 0, 129, 0, 0, 0, 0, 141, 171, 123, 54, 0, 60, 0, 129, 0, 0, 0, 0, 0, 188, 0, 61, 0, 60, 0, 129, 0, 0, 241, 179, 99, 30, 241, 179, 0, 60, 192, 107, 235, 0, 75, 181, 99, 30, 0, 0, 0, 60, 192, 107, 235, 0, 0, 0, 153, 50, 0, 0, 0, 60, 192, 107, 235, 0, 0, 0, 99, 30, 75, 181, 0, 60, 235, 107, 192, 0, 241, 179, 99, 30, 241, 179, 0, 60, 235, 107, 192, 0, 0, 0, 153, 50, 0, 0, 0, 60, 235, 107, 192, 0, 75, 181, 99, 30, 0, 0, 0, 60, 192, 107, 21, 0, 241, 179, 99, 30, 241, 51, 0, 60, 192, 107, 21, 0, 0, 0, 153, 50, 0, 0, 0, 60, 192, 107, 21, 0, 0, 0, 99, 30, 75, 53, 0, 60, 235, 107, 64, 0, 241, 179, 99, 30, 241, 51, 0, 60, 235, 107, 64, 0, 19, 177, 99, 30, 115, 52, 0, 60, 235, 107, 64, 0, 0, 0, 153, 50, 0, 0, 0, 60, 235, 107, 64, 0, 203, 172, 90, 182, 128, 57, 0, 60, 241, 97, 79, 0, 28, 176, 141, 171, 60, 52, 0, 60, 241, 97, 79, 0, 218, 178, 90, 182, 86, 57, 0, 60, 241, 97, 79, 0, 194, 169, 141, 171, 153, 52, 0, 60, 241, 97, 79, 0, 203, 172, 90, 182, 128, 57, 0, 60, 233, 69, 103, 0, 103, 180, 79, 187, 238, 59, 0, 60, 233, 69, 103, 0, 42, 174, 79, 187, 44, 60, 0, 60, 233, 69, 103, 0, 218, 178, 90, 182, 86, 57, 0, 60, 233, 69, 103, 0, 19, 49, 99, 30, 115, 52, 0, 60, 25, 95, 80, 0, 0, 0, 141, 171, 123, 54, 0, 60, 25, 95, 80, 0, 175, 49, 141, 171, 163, 53, 0, 60, 25, 95, 80, 0, 0, 0, 99, 30, 75, 53, 0, 60, 25, 95, 80, 0, 241, 51, 99, 30, 241, 179, 0, 60, 80, 96, 240, 0, 65, 58, 90, 182, 0, 0, 0, 60, 80, 96, 240, 0, 97, 57, 90, 182, 97, 185, 0, 60, 80, 96, 240, 0, 75, 53, 99, 30, 0, 0, 0, 60, 80, 96, 240, 0, 5, 61, 0, 188, 0, 0, 0, 60, 0, 129, 0, 0, 136, 59, 0, 188, 136, 59, 0, 60, 0, 129, 0, 0, 145, 52, 0, 188, 46, 60, 0, 60, 0, 129, 0, 0, 157, 53, 0, 188, 141, 60, 0, 60, 0, 129, 0, 0, 107, 52, 90, 182, 229, 57, 0, 60, 162, 37, 75, 0, 103, 52, 79, 187, 238, 59, 0, 60, 162, 37, 75, 0, 114, 53, 79, 187, 83, 60, 0, 60, 162, 37, 75, 0, 218, 50, 90, 182, 86, 57, 0, 60, 162, 37, 75, 0, 136, 59, 0, 188, 136, 187, 0, 60, 0, 129, 0, 0, 136, 59, 0, 188, 136, 187, 0, 60, 102, 69, 230, 0, 65, 58, 90, 182, 0, 0, 0, 60, 102, 69, 230, 0, 5, 61, 0, 188, 0, 0, 0, 60, 102, 69, 230, 0, 97, 57, 90, 182, 97, 185, 0, 60, 102, 69, 230, 0, 65, 58, 90, 182, 0, 0, 0, 60, 102, 69, 26, 0, 136, 59, 0, 188, 136, 59, 0, 60, 102, 69, 26, 0, 5, 61, 0, 188, 0, 0, 0, 60, 102, 69, 26, 0, 97, 57, 90, 182, 97, 57, 0, 60, 102, 69, 26, 0, 65, 58, 90, 182, 0, 0, 0, 60, 80, 96, 16, 0, 241, 51, 99, 30, 241, 51, 0, 60, 80, 96, 16, 0, 97, 57, 90, 182, 97, 57, 0, 60, 80, 96, 16, 0, 75, 53, 99, 30, 0, 0, 0, 60, 80, 96, 16, 0, 107, 52, 90, 182, 229, 57, 0, 60, 162, 52, 66, 0, 28, 48, 141, 171, 60, 52, 0, 60, 162, 52, 66, 0, 218, 50, 90, 182, 86, 57, 0, 60, 162, 52, 66, 0, 175, 49, 141, 171, 163, 53, 0, 60, 162, 52, 66, 0, 0, 0, 90, 182, 65, 186, 0, 60, 26, 69, 154, 0, 136, 59, 0, 188, 136, 187, 0, 60, 26, 69, 154, 0, 0, 0, 0, 188, 5, 189, 0, 60, 26, 69, 154, 0, 97, 57, 90, 182, 97, 185, 0, 60, 26, 69, 154, 0, 0, 0, 90, 182, 65, 186, 0, 60, 16, 96, 176, 0, 241, 51, 99, 30, 241, 179, 0, 60, 16, 96, 176, 0, 97, 57, 90, 182, 97, 185, 0, 60, 16, 96, 176, 0, 0, 0, 99, 30, 75, 181, 0, 60, 16, 96, 176, 0, 136, 59, 0, 188, 136, 59, 0, 60, 27, 66, 104, 0, 107, 52, 90, 182, 229, 57, 0, 60, 27, 66, 104, 0, 157, 53, 0, 188, 141, 60, 0, 60, 27, 66, 104, 0, 97, 57, 90, 182, 97, 57, 0, 60, 27, 66, 104, 0, 241, 51, 99, 30, 241, 51, 0, 60, 15, 97, 79, 0, 107, 52, 90, 182, 229, 57, 0, 60, 15, 97, 79, 0, 97, 57, 90, 182, 97, 57, 0, 60, 15, 97, 79, 0, 175, 49, 141, 171, 163, 53, 0, 60, 15, 97, 79, 0, 19, 49, 99, 30, 115, 52, 0, 60, 15, 97, 79, 0, 0, 0, 79, 187, 197, 60, 0, 60, 0, 126, 0, 0, 42, 46, 79, 187, 44, 60, 0, 60, 0, 126, 0, 0, 0, 0, 79, 187, 72, 60, 0, 60, 0, 126, 0, 0, 103, 52, 79, 187, 238, 59, 0, 60, 0, 126, 0, 0, 114, 53, 79, 187, 83, 60, 0, 60, 0, 126, 0, 0, 114, 53, 79, 187, 83, 60, 0, 60, 32, 69, 101, 0, 0, 0, 0, 188, 0, 61, 0, 60, 32, 69, 101, 0, 157, 53, 0, 188, 141, 60, 0, 60, 32, 69, 101, 0, 0, 0, 79, 187, 197, 60, 0, 60, 32, 69, 101, 0, 175, 49, 141, 171, 163, 53, 0, 60, 0, 129, 0, 0, 194, 41, 141, 171, 153, 52, 0, 60, 0, 129, 0, 0, 28, 48, 141, 171, 60, 52, 0, 60, 0, 129, 0, 0, 0, 0, 141, 171, 202, 52, 0, 60, 0, 129, 0, 0, 0, 0, 141, 171, 123, 54, 0, 60, 0, 129, 0, 0, 241, 51, 99, 30, 241, 179, 0, 60, 64, 107, 235, 0, 0, 0, 153, 50, 0, 0, 0, 60, 64, 107, 235, 0, 75, 53, 99, 30, 0, 0, 0, 60, 64, 107, 235, 0, 0, 0, 99, 30, 75, 181, 0, 60, 21, 107, 192, 0, 0, 0, 153, 50, 0, 0, 0, 60, 21, 107, 192, 0, 241, 51, 99, 30, 241, 179, 0, 60, 21, 107, 192, 0, 75, 53, 99, 30, 0, 0, 0, 60, 64, 107, 21, 0, 0, 0, 153, 50, 0, 0, 0, 60, 64, 107, 21, 0, 241, 51, 99, 30, 241, 51, 0, 60, 64, 107, 21, 0, 241, 51, 99, 30, 241, 51, 0, 60, 21, 107, 64, 0, 0, 0, 99, 30, 75, 53, 0, 60, 21, 107, 64, 0, 19, 49, 99, 30, 115, 52, 0, 60, 21, 107, 64, 0, 0, 0, 153, 50, 0, 0, 0, 60, 21, 107, 64, 0, 28, 48, 141, 171, 60, 52, 0, 60, 15, 97, 79, 0, 203, 44, 90, 182, 128, 57, 0, 60, 15, 97, 79, 0, 218, 50, 90, 182, 86, 57, 0, 60, 15, 97, 79, 0, 194, 41, 141, 171, 153, 52, 0, 60, 15, 97, 79, 0, 103, 52, 79, 187, 238, 59, 0, 60, 23, 69, 103, 0, 203, 44, 90, 182, 128, 57, 0, 60, 23, 69, 103, 0, 42, 46, 79, 187, 44, 60, 0, 60, 23, 69, 103, 0, 218, 50, 90, 182, 86, 57, 0, 60, 23, 69, 103, 0 ),
"array_index_data": PoolByteArray( 0, 0, 2, 0, 1, 0, 3, 0, 0, 0, 1, 0, 4, 0, 6, 0, 5, 0, 7, 0, 4, 0, 5, 0, 8, 0, 10, 0, 9, 0, 11, 0, 8, 0, 12, 0, 12, 0, 8, 0, 9, 0, 12, 0, 9, 0, 13, 0, 14, 0, 16, 0, 15, 0, 17, 0, 14, 0, 15, 0, 8, 0, 19, 0, 18, 0, 8, 0, 18, 0, 10, 0, 20, 0, 22, 0, 21, 0, 20, 0, 21, 0, 23, 0, 24, 0, 26, 0, 25, 0, 27, 0, 24, 0, 25, 0, 28, 0, 30, 0, 29, 0, 28, 0, 29, 0, 31, 0, 32, 0, 34, 0, 33, 0, 32, 0, 33, 0, 35, 0, 36, 0, 38, 0, 37, 0, 39, 0, 36, 0, 37, 0, 40, 0, 42, 0, 41, 0, 40, 0, 41, 0, 43, 0, 44, 0, 46, 0, 45, 0, 44, 0, 45, 0, 47, 0, 48, 0, 50, 0, 49, 0, 51, 0, 48, 0, 49, 0, 52, 0, 51, 0, 49, 0, 53, 0, 55, 0, 54, 0, 56, 0, 53, 0, 54, 0, 57, 0, 56, 0, 54, 0, 58, 0, 60, 0, 59, 0, 61, 0, 58, 0, 59, 0, 62, 0, 64, 0, 63, 0, 65, 0, 62, 0, 63, 0, 66, 0, 65, 0, 63, 0, 11, 0, 12, 0, 13, 0, 67, 0, 11, 0, 13, 0, 68, 0, 70, 0, 69, 0, 71, 0, 73, 0, 72, 0, 74, 0, 76, 0, 75, 0, 77, 0, 79, 0, 78, 0, 80, 0, 77, 0, 78, 0, 81, 0, 83, 0, 82, 0, 84, 0, 81, 0, 82, 0, 85, 0, 87, 0, 86, 0, 85, 0, 86, 0, 88, 0, 89, 0, 91, 0, 90, 0, 89, 0, 90, 0, 92, 0, 93, 0, 95, 0, 94, 0, 93, 0, 94, 0, 96, 0, 97, 0, 8, 0, 11, 0, 98, 0, 97, 0, 99, 0, 99, 0, 97, 0, 11, 0, 100, 0, 98, 0, 99, 0, 101, 0, 103, 0, 102, 0, 101, 0, 102, 0, 104, 0, 105, 0, 19, 0, 8, 0, 97, 0, 105, 0, 8, 0, 106, 0, 108, 0, 107, 0, 109, 0, 106, 0, 107, 0, 110, 0, 112, 0, 111, 0, 110, 0, 111, 0, 113, 0, 114, 0, 116, 0, 115, 0, 117, 0, 114, 0, 115, 0, 118, 0, 120, 0, 119, 0, 121, 0, 118, 0, 119, 0, 122, 0, 124, 0, 123, 0, 122, 0, 123, 0, 125, 0, 126, 0, 128, 0, 127, 0, 129, 0, 126, 0, 127, 0, 130, 0, 132, 0, 131, 0, 133, 0, 130, 0, 131, 0, 134, 0, 136, 0, 135, 0, 134, 0, 135, 0, 137, 0, 134, 0, 137, 0, 138, 0, 139, 0, 141, 0, 140, 0, 139, 0, 140, 0, 142, 0, 139, 0, 142, 0, 143, 0, 144, 0, 146, 0, 145, 0, 144, 0, 145, 0, 147, 0, 148, 0, 150, 0, 149, 0, 148, 0, 149, 0, 151, 0, 148, 0, 151, 0, 152, 0, 100, 0, 99, 0, 11, 0, 100, 0, 11, 0, 67, 0, 153, 0, 155, 0, 154, 0, 156, 0, 158, 0, 157, 0, 159, 0, 161, 0, 160, 0, 162, 0, 164, 0, 163, 0, 165, 0, 162, 0, 163, 0, 166, 0, 168, 0, 167, 0, 166, 0, 167, 0, 169, 0, 170, 0, 172, 0, 171, 0, 173, 0, 170, 0, 171, 0 ),
"blend_shape_data": [  ],
"format": 98051,
"index_count": 288,
"material": ExtResource( 1 ),
"primitive": 4,
"skeleton_aabb": [  ],
"vertex_count": 174
}

[sub_resource type="ArrayMesh" id=3]
surfaces/0 = {
"aabb": AABB( -0.136398, -0.164729, -2.28005e-08, 0.272798, 0.329457, 3.47374 ),
"array_data": PoolByteArray( 209, 173, 176, 175, 235, 65, 0, 60, 201, 142, 0, 0, 0, 0, 69, 177, 0, 0, 0, 60, 201, 142, 0, 0, 0, 0, 69, 177, 235, 65, 0, 60, 201, 142, 0, 0, 209, 173, 176, 175, 0, 0, 0, 60, 201, 142, 0, 0, 0, 0, 69, 177, 0, 0, 0, 60, 55, 142, 0, 0, 209, 45, 176, 175, 235, 65, 0, 60, 55, 142, 0, 0, 0, 0, 69, 177, 235, 65, 0, 60, 55, 142, 0, 0, 209, 45, 176, 175, 0, 0, 0, 60, 55, 142, 0, 0, 0, 0, 0, 0, 242, 66, 0, 60, 169, 182, 53, 0, 209, 173, 225, 174, 70, 66, 0, 60, 169, 182, 53, 0, 0, 0, 30, 177, 70, 66, 0, 60, 169, 182, 53, 0, 93, 176, 10, 173, 70, 66, 0, 60, 169, 182, 53, 0, 93, 176, 10, 169, 70, 66, 0, 60, 169, 182, 53, 0, 93, 176, 0, 0, 70, 66, 0, 60, 169, 182, 53, 0, 209, 45, 225, 174, 70, 66, 0, 60, 87, 182, 53, 0, 0, 0, 0, 0, 242, 66, 0, 60, 87, 182, 53, 0, 0, 0, 30, 177, 70, 66, 0, 60, 87, 182, 53, 0, 93, 48, 10, 173, 70, 66, 0, 60, 87, 182, 53, 0, 93, 48, 10, 169, 70, 66, 0, 60, 87, 182, 53, 0, 93, 48, 0, 0, 70, 66, 0, 60, 87, 182, 53, 0, 0, 0, 69, 49, 235, 65, 0, 60, 201, 114, 0, 0, 209, 173, 176, 47, 0, 0, 0, 60, 201, 114, 0, 0, 209, 173, 176, 47, 235, 65, 0, 60, 201, 114, 0, 0, 0, 0, 69, 49, 0, 0, 0, 60, 201, 114, 0, 0, 209, 45, 176, 47, 0, 0, 0, 60, 55, 114, 0, 0, 0, 0, 69, 49, 235, 65, 0, 60, 55, 114, 0, 0, 209, 45, 176, 47, 235, 65, 0, 60, 55, 114, 0, 0, 0, 0, 69, 49, 0, 0, 0, 60, 55, 114, 0, 0, 0, 0, 30, 49, 70, 66, 0, 60, 169, 74, 53, 0, 93, 176, 0, 0, 70, 66, 0, 60, 169, 74, 53, 0, 0, 0, 0, 0, 242, 66, 0, 60, 169, 74, 53, 0, 93, 176, 10, 41, 70, 66, 0, 60, 169, 74, 53, 0, 93, 176, 10, 45, 70, 66, 0, 60, 169, 74, 53, 0, 209, 173, 225, 46, 70, 66, 0, 60, 169, 74, 53, 0, 93, 48, 0, 0, 70, 66, 0, 60, 87, 74, 53, 0, 0, 0, 30, 49, 70, 66, 0, 60, 87, 74, 53, 0, 0, 0, 0, 0, 242, 66, 0, 60, 87, 74, 53, 0, 93, 48, 10, 41, 70, 66, 0, 60, 87, 74, 53, 0, 93, 48, 10, 45, 70, 66, 0, 60, 87, 74, 53, 0, 209, 45, 225, 46, 70, 66, 0, 60, 87, 74, 53, 0 ),
"array_index_data": PoolByteArray( 0, 0, 2, 0, 1, 0, 0, 0, 1, 0, 3, 0, 4, 0, 6, 0, 5, 0, 7, 0, 4, 0, 5, 0, 8, 0, 10, 0, 9, 0, 8, 0, 9, 0, 11, 0, 8, 0, 11, 0, 12, 0, 8, 0, 12, 0, 13, 0, 14, 0, 16, 0, 15, 0, 17, 0, 14, 0, 15, 0, 18, 0, 17, 0, 15, 0, 19, 0, 18, 0, 15, 0, 20, 0, 22, 0, 21, 0, 20, 0, 21, 0, 23, 0, 24, 0, 26, 0, 25, 0, 27, 0, 24, 0, 25, 0, 28, 0, 30, 0, 29, 0, 28, 0, 29, 0, 31, 0, 28, 0, 31, 0, 32, 0, 28, 0, 32, 0, 33, 0, 34, 0, 36, 0, 35, 0, 37, 0, 34, 0, 35, 0, 38, 0, 37, 0, 35, 0, 39, 0, 38, 0, 35, 0 ),
"blend_shape_data": [  ],
"format": 98051,
"index_count": 72,
"material": ExtResource( 2 ),
"primitive": 4,
"skeleton_aabb": [  ],
"vertex_count": 40
}
surfaces/1 = {
"aabb": AABB( -0.181865, -0.21, -3.53882e-08, 0.363731, 0.42, 3.43313 ),
"array_data": PoolByteArray( 0, 0, 0, 0, 0, 0, 0, 60, 0, 0, 129, 0, 209, 45, 10, 177, 0, 0, 0, 60, 0, 0, 129, 0, 0, 0, 184, 178, 0, 0, 0, 60, 0, 0, 129, 0, 209, 49, 184, 174, 0, 0, 0, 60, 0, 0, 129, 0, 209, 45, 10, 177, 34, 66, 0, 60, 63, 147, 0, 0, 209, 49, 184, 174, 70, 66, 0, 60, 63, 147, 0, 0, 209, 45, 10, 177, 70, 66, 0, 60, 63, 147, 0, 0, 209, 45, 10, 177, 0, 0, 0, 60, 63, 147, 0, 0, 209, 49, 184, 174, 0, 0, 0, 60, 63, 147, 0, 0, 209, 173, 10, 177, 0, 0, 0, 60, 0, 0, 129, 0, 0, 0, 0, 0, 0, 0, 0, 60, 0, 0, 129, 0, 0, 0, 184, 178, 0, 0, 0, 60, 0, 0, 129, 0, 209, 177, 184, 174, 0, 0, 0, 60, 0, 0, 129, 0, 209, 45, 176, 175, 235, 65, 0, 60, 129, 0, 0, 0, 209, 45, 10, 177, 0, 0, 0, 60, 129, 0, 0, 0, 209, 45, 10, 177, 34, 66, 0, 60, 129, 0, 0, 0, 209, 45, 176, 175, 0, 0, 0, 60, 129, 0, 0, 0, 209, 177, 184, 174, 70, 66, 0, 60, 193, 147, 0, 0, 209, 173, 10, 177, 0, 0, 0, 60, 193, 147, 0, 0, 209, 173, 10, 177, 70, 66, 0, 60, 193, 147, 0, 0, 209, 177, 184, 174, 0, 0, 0, 60, 193, 147, 0, 0, 209, 45, 10, 177, 0, 0, 0, 60, 0, 0, 126, 0, 0, 0, 69, 177, 0, 0, 0, 60, 0, 0, 126, 0, 0, 0, 184, 178, 0, 0, 0, 60, 0, 0, 126, 0, 209, 45, 176, 175, 0, 0, 0, 60, 0, 0, 126, 0, 209, 177, 10, 169, 70, 66, 0, 60, 129, 0, 0, 0, 209, 177, 184, 174, 0, 0, 0, 60, 129, 0, 0, 0, 209, 177, 184, 174, 70, 66, 0, 60, 129, 0, 0, 0, 209, 177, 0, 0, 0, 0, 0, 60, 129, 0, 0, 0, 209, 177, 0, 0, 70, 66, 0, 60, 129, 0, 0, 0, 209, 177, 10, 169, 70, 66, 0, 60, 0, 126, 248, 0, 49, 174, 39, 167, 162, 66, 0, 60, 0, 126, 248, 0, 93, 176, 10, 169, 70, 66, 0, 60, 0, 126, 248, 0, 33, 176, 39, 167, 162, 66, 0, 60, 0, 126, 248, 0, 209, 177, 0, 0, 0, 0, 0, 60, 0, 0, 129, 0, 209, 49, 184, 174, 0, 0, 0, 60, 127, 0, 0, 0, 209, 49, 10, 169, 70, 66, 0, 60, 127, 0, 0, 0, 209, 49, 184, 174, 70, 66, 0, 60, 127, 0, 0, 0, 209, 49, 0, 0, 0, 0, 0, 60, 127, 0, 0, 0, 209, 49, 0, 0, 70, 66, 0, 60, 127, 0, 0, 0, 209, 49, 10, 169, 70, 66, 0, 60, 121, 0, 35, 0, 33, 48, 196, 172, 162, 66, 0, 60, 121, 0, 35, 0, 209, 49, 184, 174, 70, 66, 0, 60, 121, 0, 35, 0, 33, 48, 39, 167, 162, 66, 0, 60, 121, 0, 35, 0, 0, 0, 69, 177, 0, 0, 0, 60, 0, 0, 127, 0, 209, 173, 10, 177, 0, 0, 0, 60, 0, 0, 127, 0, 0, 0, 184, 178, 0, 0, 0, 60, 0, 0, 127, 0, 209, 173, 176, 175, 0, 0, 0, 60, 0, 0, 127, 0, 209, 173, 176, 175, 235, 65, 0, 60, 59, 111, 251, 0, 0, 0, 30, 177, 70, 66, 0, 60, 59, 111, 251, 0, 0, 0, 69, 177, 235, 65, 0, 60, 59, 111, 251, 0, 209, 173, 225, 174, 70, 66, 0, 60, 59, 111, 251, 0, 209, 173, 10, 177, 0, 0, 0, 60, 126, 0, 0, 0, 209, 173, 176, 175, 235, 65, 0, 60, 126, 0, 0, 0, 209, 173, 10, 177, 34, 66, 0, 60, 126, 0, 0, 0, 209, 173, 176, 175, 0, 0, 0, 60, 126, 0, 0, 0, 209, 173, 10, 177, 70, 66, 0, 60, 193, 147, 0, 0, 0, 0, 184, 178, 34, 66, 0, 60, 193, 147, 0, 0, 0, 0, 184, 178, 70, 66, 0, 60, 193, 147, 0, 0, 209, 173, 10, 177, 34, 66, 0, 60, 193, 147, 0, 0, 209, 173, 10, 177, 34, 66, 0, 60, 200, 150, 216, 0, 0, 0, 69, 177, 235, 65, 0, 60, 200, 150, 216, 0, 0, 0, 184, 178, 34, 66, 0, 60, 200, 150, 216, 0, 209, 173, 176, 175, 235, 65, 0, 60, 200, 150, 216, 0, 0, 0, 69, 177, 235, 65, 0, 60, 56, 150, 216, 0, 209, 45, 10, 177, 34, 66, 0, 60, 56, 150, 216, 0, 0, 0, 184, 178, 34, 66, 0, 60, 56, 150, 216, 0, 209, 45, 176, 175, 235, 65, 0, 60, 56, 150, 216, 0, 209, 45, 176, 175, 235, 65, 0, 60, 127, 0, 0, 0, 209, 45, 10, 177, 70, 66, 0, 60, 127, 0, 0, 0, 209, 45, 10, 177, 34, 66, 0, 60, 127, 0, 0, 0, 209, 45, 225, 174, 70, 66, 0, 60, 127, 0, 0, 0, 209, 173, 225, 174, 70, 66, 0, 60, 129, 0, 0, 0, 209, 173, 10, 177, 34, 66, 0, 60, 129, 0, 0, 0, 209, 173, 10, 177, 70, 66, 0, 60, 129, 0, 0, 0, 209, 173, 176, 175, 235, 65, 0, 60, 129, 0, 0, 0, 209, 45, 10, 177, 34, 66, 0, 60, 63, 147, 0, 0, 0, 0, 184, 178, 70, 66, 0, 60, 63, 147, 0, 0, 0, 0, 184, 178, 34, 66, 0, 60, 63, 147, 0, 0, 209, 45, 10, 177, 70, 66, 0, 60, 63, 147, 0, 0, 0, 0, 30, 177, 70, 66, 0, 60, 197, 111, 251, 0, 209, 45, 176, 175, 235, 65, 0, 60, 197, 111, 251, 0, 0, 0, 69, 177, 235, 65, 0, 60, 197, 111, 251, 0, 209, 45, 225, 174, 70, 66, 0, 60, 197, 111, 251, 0, 0, 0, 30, 177, 70, 66, 0, 60, 0, 0, 126, 0, 209, 173, 10, 177, 70, 66, 0, 60, 0, 0, 126, 0, 0, 0, 184, 178, 70, 66, 0, 60, 0, 0, 126, 0, 209, 173, 225, 174, 70, 66, 0, 60, 0, 0, 126, 0, 49, 174, 39, 167, 162, 66, 0, 60, 0, 126, 9, 0, 33, 176, 39, 167, 162, 66, 0, 60, 0, 126, 9, 0, 61, 171, 164, 168, 221, 66, 0, 60, 0, 126, 9, 0, 61, 43, 164, 168, 221, 66, 0, 60, 137, 0, 215, 0, 49, 46, 39, 167, 162, 66, 0, 60, 137, 0, 215, 0, 49, 46, 39, 171, 162, 66, 0, 60, 137, 0, 215, 0, 33, 176, 196, 172, 162, 66, 0, 60, 135, 0, 35, 0, 209, 177, 10, 169, 70, 66, 0, 60, 135, 0, 35, 0, 209, 177, 184, 174, 70, 66, 0, 60, 135, 0, 35, 0, 33, 176, 39, 167, 162, 66, 0, 60, 135, 0, 35, 0, 209, 49, 184, 174, 70, 66, 0, 60, 60, 151, 35, 0, 33, 44, 39, 175, 162, 66, 0, 60, 60, 151, 35, 0, 209, 45, 10, 177, 70, 66, 0, 60, 60, 151, 35, 0, 33, 48, 196, 172, 162, 66, 0, 60, 60, 151, 35, 0, 209, 45, 10, 177, 70, 66, 0, 60, 0, 0, 127, 0, 0, 0, 30, 177, 70, 66, 0, 60, 0, 0, 127, 0, 0, 0, 184, 178, 70, 66, 0, 60, 0, 0, 127, 0, 209, 45, 225, 174, 70, 66, 0, 60, 0, 0, 127, 0, 61, 171, 164, 168, 221, 66, 0, 60, 149, 0, 67, 0, 33, 176, 39, 167, 162, 66, 0, 60, 149, 0, 67, 0, 33, 176, 196, 172, 162, 66, 0, 60, 149, 0, 67, 0, 49, 46, 39, 171, 162, 66, 0, 60, 132, 0, 229, 0, 93, 48, 10, 169, 70, 66, 0, 60, 132, 0, 229, 0, 93, 48, 10, 173, 70, 66, 0, 60, 132, 0, 229, 0, 49, 46, 39, 167, 162, 66, 0, 60, 132, 0, 229, 0, 93, 176, 10, 169, 70, 66, 0, 60, 124, 0, 229, 0, 49, 174, 39, 171, 162, 66, 0, 60, 124, 0, 229, 0, 93, 176, 10, 173, 70, 66, 0, 60, 124, 0, 229, 0, 49, 174, 39, 167, 162, 66, 0, 60, 124, 0, 229, 0, 93, 176, 10, 173, 70, 66, 0, 60, 64, 105, 228, 0, 33, 172, 196, 172, 162, 66, 0, 60, 64, 105, 228, 0, 209, 173, 225, 174, 70, 66, 0, 60, 64, 105, 228, 0, 49, 174, 39, 171, 162, 66, 0, 60, 64, 105, 228, 0, 209, 173, 225, 174, 70, 66, 0, 60, 125, 0, 238, 0, 33, 172, 39, 175, 162, 66, 0, 60, 125, 0, 238, 0, 209, 173, 10, 177, 70, 66, 0, 60, 125, 0, 238, 0, 33, 172, 196, 172, 162, 66, 0, 60, 125, 0, 238, 0, 209, 49, 10, 169, 70, 66, 0, 60, 0, 0, 126, 0, 93, 48, 0, 0, 70, 66, 0, 60, 0, 0, 126, 0, 93, 48, 10, 169, 70, 66, 0, 60, 0, 0, 126, 0, 209, 49, 0, 0, 70, 66, 0, 60, 0, 0, 126, 0, 33, 48, 39, 167, 162, 66, 0, 60, 0, 126, 9, 0, 49, 46, 39, 167, 162, 66, 0, 60, 0, 126, 9, 0, 61, 43, 164, 168, 221, 66, 0, 60, 0, 126, 9, 0, 33, 44, 196, 172, 162, 66, 0, 60, 192, 105, 228, 0, 93, 48, 10, 173, 70, 66, 0, 60, 192, 105, 228, 0, 209, 45, 225, 174, 70, 66, 0, 60, 192, 105, 228, 0, 49, 46, 39, 171, 162, 66, 0, 60, 192, 105, 228, 0, 209, 45, 225, 174, 70, 66, 0, 60, 125, 0, 18, 0, 33, 44, 39, 175, 162, 66, 0, 60, 125, 0, 18, 0, 209, 45, 10, 177, 70, 66, 0, 60, 125, 0, 18, 0, 33, 44, 196, 172, 162, 66, 0, 60, 125, 0, 18, 0, 93, 176, 10, 169, 70, 66, 0, 60, 0, 0, 127, 0, 209, 177, 0, 0, 70, 66, 0, 60, 0, 0, 127, 0, 209, 177, 10, 169, 70, 66, 0, 60, 0, 0, 127, 0, 93, 176, 0, 0, 70, 66, 0, 60, 0, 0, 127, 0, 49, 46, 39, 167, 162, 66, 0, 60, 0, 126, 248, 0, 209, 49, 10, 169, 70, 66, 0, 60, 0, 126, 248, 0, 93, 48, 10, 169, 70, 66, 0, 60, 0, 126, 248, 0, 33, 48, 39, 167, 162, 66, 0, 60, 0, 126, 248, 0, 33, 172, 39, 175, 162, 66, 0, 60, 196, 151, 35, 0, 209, 177, 184, 174, 70, 66, 0, 60, 196, 151, 35, 0, 209, 173, 10, 177, 70, 66, 0, 60, 196, 151, 35, 0, 33, 176, 196, 172, 162, 66, 0, 60, 196, 151, 35, 0, 61, 171, 164, 168, 221, 66, 0, 60, 0, 0, 0, 0, 61, 171, 164, 168, 221, 66, 0, 60, 0, 0, 0, 0, 49, 174, 39, 167, 162, 66, 0, 60, 119, 0, 215, 0, 61, 171, 164, 168, 221, 66, 0, 60, 119, 0, 215, 0, 49, 174, 39, 171, 162, 66, 0, 60, 119, 0, 215, 0, 33, 172, 196, 172, 162, 66, 0, 60, 126, 0, 248, 0, 61, 171, 164, 168, 221, 66, 0, 60, 126, 0, 248, 0, 33, 172, 39, 175, 162, 66, 0, 60, 126, 0, 248, 0, 49, 174, 39, 171, 162, 66, 0, 60, 60, 104, 218, 0, 61, 171, 164, 168, 221, 66, 0, 60, 60, 104, 218, 0, 33, 172, 196, 172, 162, 66, 0, 60, 60, 104, 218, 0, 61, 171, 164, 168, 221, 66, 0, 60, 202, 162, 65, 0, 33, 176, 196, 172, 162, 66, 0, 60, 202, 162, 65, 0, 33, 172, 39, 175, 162, 66, 0, 60, 202, 162, 65, 0, 61, 43, 164, 168, 221, 66, 0, 60, 0, 0, 0, 0, 61, 43, 164, 168, 221, 66, 0, 60, 0, 0, 0, 0, 33, 48, 196, 172, 162, 66, 0, 60, 54, 162, 65, 0, 61, 43, 164, 168, 221, 66, 0, 60, 54, 162, 65, 0, 33, 44, 39, 175, 162, 66, 0, 60, 54, 162, 65, 0, 61, 43, 164, 168, 221, 66, 0, 60, 196, 104, 218, 0, 49, 46, 39, 171, 162, 66, 0, 60, 196, 104, 218, 0, 33, 44, 196, 172, 162, 66, 0, 60, 196, 104, 218, 0, 33, 48, 39, 167, 162, 66, 0, 60, 107, 0, 67, 0, 61, 43, 164, 168, 221, 66, 0, 60, 107, 0, 67, 0, 33, 48, 196, 172, 162, 66, 0, 60, 107, 0, 67, 0, 61, 43, 164, 168, 221, 66, 0, 60, 130, 0, 248, 0, 33, 44, 196, 172, 162, 66, 0, 60, 130, 0, 248, 0, 33, 44, 39, 175, 162, 66, 0, 60, 130, 0, 248, 0, 0, 0, 184, 50, 0, 0, 0, 60, 0, 0, 129, 0, 209, 45, 10, 49, 0, 0, 0, 60, 0, 0, 129, 0, 209, 49, 184, 46, 0, 0, 0, 60, 0, 0, 129, 0, 209, 49, 184, 46, 0, 0, 0, 60, 63, 109, 0, 0, 209, 45, 10, 49, 70, 66, 0, 60, 63, 109, 0, 0, 209, 49, 184, 46, 70, 66, 0, 60, 63, 109, 0, 0, 209, 45, 10, 49, 0, 0, 0, 60, 63, 109, 0, 0, 209, 45, 10, 49, 34, 66, 0, 60, 63, 109, 0, 0, 209, 177, 184, 46, 0, 0, 0, 60, 0, 0, 129, 0, 0, 0, 184, 50, 0, 0, 0, 60, 0, 0, 129, 0, 209, 173, 10, 49, 0, 0, 0, 60, 0, 0, 129, 0, 209, 45, 10, 49, 34, 66, 0, 60, 129, 0, 0, 0, 209, 45, 176, 47, 0, 0, 0, 60, 129, 0, 0, 0, 209, 45, 176, 47, 235, 65, 0, 60, 129, 0, 0, 0, 209, 45, 10, 49, 0, 0, 0, 60, 129, 0, 0, 0, 209, 173, 10, 49, 70, 66, 0, 60, 193, 109, 0, 0, 209, 177, 184, 46, 0, 0, 0, 60, 193, 109, 0, 0, 209, 177, 184, 46, 70, 66, 0, 60, 193, 109, 0, 0, 209, 173, 10, 49, 0, 0, 0, 60, 193, 109, 0, 0, 209, 45, 10, 49, 0, 0, 0, 60, 0, 0, 127, 0, 0, 0, 69, 49, 0, 0, 0, 60, 0, 0, 127, 0, 209, 45, 176, 47, 0, 0, 0, 60, 0, 0, 127, 0, 0, 0, 184, 50, 0, 0, 0, 60, 0, 0, 127, 0, 209, 177, 10, 41, 70, 66, 0, 60, 129, 0, 0, 0, 209, 177, 0, 0, 0, 0, 0, 60, 129, 0, 0, 0, 209, 177, 0, 0, 70, 66, 0, 60, 129, 0, 0, 0, 209, 177, 184, 46, 0, 0, 0, 60, 129, 0, 0, 0, 209, 177, 184, 46, 70, 66, 0, 60, 129, 0, 0, 0, 33, 176, 39, 39, 162, 66, 0, 60, 0, 130, 248, 0, 93, 176, 10, 41, 70, 66, 0, 60, 0, 130, 248, 0, 49, 174, 39, 39, 162, 66, 0, 60, 0, 130, 248, 0, 209, 177, 10, 41, 70, 66, 0, 60, 0, 130, 248, 0, 209, 177, 184, 46, 0, 0, 0, 60, 0, 0, 129, 0, 0, 0, 0, 0, 0, 0, 0, 60, 0, 0, 129, 0, 209, 177, 0, 0, 0, 0, 0, 60, 0, 0, 129, 0, 209, 49, 0, 0, 0, 0, 0, 60, 127, 0, 0, 0, 209, 49, 10, 41, 70, 66, 0, 60, 127, 0, 0, 0, 209, 49, 0, 0, 70, 66, 0, 60, 127, 0, 0, 0, 209, 49, 184, 46, 0, 0, 0, 60, 127, 0, 0, 0, 209, 49, 184, 46, 70, 66, 0, 60, 127, 0, 0, 0, 209, 49, 10, 41, 70, 66, 0, 60, 121, 0, 35, 0, 33, 48, 196, 44, 162, 66, 0, 60, 121, 0, 35, 0, 33, 48, 39, 39, 162, 66, 0, 60, 121, 0, 35, 0, 209, 49, 184, 46, 70, 66, 0, 60, 121, 0, 35, 0, 0, 0, 69, 49, 0, 0, 0, 60, 0, 0, 127, 0, 209, 173, 10, 49, 0, 0, 0, 60, 0, 0, 127, 0, 209, 173, 176, 47, 0, 0, 0, 60, 0, 0, 127, 0, 0, 0, 184, 50, 0, 0, 0, 60, 0, 0, 127, 0, 209, 173, 176, 47, 235, 65, 0, 60, 59, 145, 251, 0, 0, 0, 30, 49, 70, 66, 0, 60, 59, 145, 251, 0, 209, 173, 225, 46, 70, 66, 0, 60, 59, 145, 251, 0, 0, 0, 69, 49, 235, 65, 0, 60, 59, 145, 251, 0, 209, 173, 176, 47, 0, 0, 0, 60, 127, 0, 0, 0, 209, 173, 10, 49, 34, 66, 0, 60, 127, 0, 0, 0, 209, 173, 176, 47, 235, 65, 0, 60, 127, 0, 0, 0, 209, 173, 10, 49, 0, 0, 0, 60, 127, 0, 0, 0, 209, 173, 10, 49, 70, 66, 0, 60, 193, 109, 0, 0, 0, 0, 184, 50, 34, 66, 0, 60, 193, 109, 0, 0, 209, 173, 10, 49, 34, 66, 0, 60, 193, 109, 0, 0, 0, 0, 184, 50, 70, 66, 0, 60, 193, 109, 0, 0, 209, 173, 10, 49, 34, 66, 0, 60, 200, 106, 216, 0, 0, 0, 69, 49, 235, 65, 0, 60, 200, 106, 216, 0, 209, 173, 176, 47, 235, 65, 0, 60, 200, 106, 216, 0, 0, 0, 184, 50, 34, 66, 0, 60, 200, 106, 216, 0, 0, 0, 69, 49, 235, 65, 0, 60, 56, 106, 216, 0, 209, 45, 10, 49, 34, 66, 0, 60, 56, 106, 216, 0, 209, 45, 176, 47, 235, 65, 0, 60, 56, 106, 216, 0, 0, 0, 184, 50, 34, 66, 0, 60, 56, 106, 216, 0, 209, 45, 176, 47, 235, 65, 0, 60, 127, 0, 0, 0, 209, 45, 10, 49, 70, 66, 0, 60, 127, 0, 0, 0, 209, 45, 225, 46, 70, 66, 0, 60, 127, 0, 0, 0, 209, 45, 10, 49, 34, 66, 0, 60, 127, 0, 0, 0, 209, 173, 10, 49, 70, 66, 0, 60, 129, 0, 0, 0, 209, 173, 176, 47, 235, 65, 0, 60, 129, 0, 0, 0, 209, 173, 225, 46, 70, 66, 0, 60, 129, 0, 0, 0, 209, 173, 10, 49, 34, 66, 0, 60, 129, 0, 0, 0, 209, 45, 10, 49, 34, 66, 0, 60, 63, 109, 0, 0, 0, 0, 184, 50, 70, 66, 0, 60, 63, 109, 0, 0, 209, 45, 10, 49, 70, 66, 0, 60, 63, 109, 0, 0, 0, 0, 184, 50, 34, 66, 0, 60, 63, 109, 0, 0, 0, 0, 30, 49, 70, 66, 0, 60, 197, 145, 251, 0, 209, 45, 176, 47, 235, 65, 0, 60, 197, 145, 251, 0, 209, 45, 225, 46, 70, 66, 0, 60, 197, 145, 251, 0, 0, 0, 69, 49, 235, 65, 0, 60, 197, 145, 251, 0, 0, 0, 30, 49, 70, 66, 0, 60, 0, 0, 127, 0, 209, 173, 10, 49, 70, 66, 0, 60, 0, 0, 127, 0, 209, 173, 225, 46, 70, 66, 0, 60, 0, 0, 127, 0, 0, 0, 184, 50, 70, 66, 0, 60, 0, 0, 127, 0, 49, 174, 39, 39, 162, 66, 0, 60, 0, 130, 9, 0, 61, 171, 164, 40, 221, 66, 0, 60, 0, 130, 9, 0, 33, 176, 39, 39, 162, 66, 0, 60, 0, 130, 9, 0, 61, 43, 164, 40, 221, 66, 0, 60, 137, 0, 215, 0, 49, 46, 39, 43, 162, 66, 0, 60, 137, 0, 215, 0, 49, 46, 39, 39, 162, 66, 0, 60, 137, 0, 215, 0, 33, 176, 196, 44, 162, 66, 0, 60, 135, 0, 35, 0, 209, 177, 10, 41, 70, 66, 0, 60, 135, 0, 35, 0, 33, 176, 39, 39, 162, 66, 0, 60, 135, 0, 35, 0, 209, 177, 184, 46, 70, 66, 0, 60, 135, 0, 35, 0, 209, 49, 184, 46, 70, 66, 0, 60, 60, 105, 35, 0, 33, 44, 39, 47, 162, 66, 0, 60, 60, 105, 35, 0, 33, 48, 196, 44, 162, 66, 0, 60, 60, 105, 35, 0, 209, 45, 10, 49, 70, 66, 0, 60, 60, 105, 35, 0, 209, 45, 10, 49, 70, 66, 0, 60, 0, 0, 127, 0, 209, 45, 225, 46, 70, 66, 0, 60, 0, 0, 127, 0, 61, 171, 164, 40, 221, 66, 0, 60, 149, 0, 67, 0, 33, 176, 196, 44, 162, 66, 0, 60, 149, 0, 67, 0, 33, 176, 39, 39, 162, 66, 0, 60, 149, 0, 67, 0, 49, 46, 39, 43, 162, 66, 0, 60, 132, 0, 229, 0, 93, 48, 10, 41, 70, 66, 0, 60, 132, 0, 229, 0, 49, 46, 39, 39, 162, 66, 0, 60, 132, 0, 229, 0, 93, 48, 10, 45, 70, 66, 0, 60, 132, 0, 229, 0, 93, 176, 10, 41, 70, 66, 0, 60, 124, 0, 229, 0, 49, 174, 39, 43, 162, 66, 0, 60, 124, 0, 229, 0, 49, 174, 39, 39, 162, 66, 0, 60, 124, 0, 229, 0, 93, 176, 10, 45, 70, 66, 0, 60, 124, 0, 229, 0, 93, 176, 10, 45, 70, 66, 0, 60, 64, 151, 228, 0, 33, 172, 196, 44, 162, 66, 0, 60, 64, 151, 228, 0, 49, 174, 39, 43, 162, 66, 0, 60, 64, 151, 228, 0, 209, 173, 225, 46, 70, 66, 0, 60, 64, 151, 228, 0, 209, 173, 225, 46, 70, 66, 0, 60, 125, 0, 238, 0, 33, 172, 39, 47, 162, 66, 0, 60, 125, 0, 238, 0, 33, 172, 196, 44, 162, 66, 0, 60, 125, 0, 238, 0, 209, 173, 10, 49, 70, 66, 0, 60, 125, 0, 238, 0, 93, 48, 10, 41, 70, 66, 0, 60, 0, 0, 126, 0, 209, 49, 10, 41, 70, 66, 0, 60, 0, 0, 126, 0, 61, 43, 164, 40, 221, 66, 0, 60, 0, 130, 9, 0, 49, 46, 39, 39, 162, 66, 0, 60, 0, 130, 9, 0, 33, 48, 39, 39, 162, 66, 0, 60, 0, 130, 9, 0, 33, 44, 196, 44, 162, 66, 0, 60, 192, 151, 228, 0, 93, 48, 10, 45, 70, 66, 0, 60, 192, 151, 228, 0, 49, 46, 39, 43, 162, 66, 0, 60, 192, 151, 228, 0, 209, 45, 225, 46, 70, 66, 0, 60, 192, 151, 228, 0, 209, 45, 225, 46, 70, 66, 0, 60, 125, 0, 18, 0, 33, 44, 39, 47, 162, 66, 0, 60, 125, 0, 18, 0, 33, 44, 196, 44, 162, 66, 0, 60, 125, 0, 18, 0, 209, 45, 10, 49, 70, 66, 0, 60, 125, 0, 18, 0, 93, 176, 0, 0, 70, 66, 0, 60, 0, 0, 127, 0, 209, 177, 10, 41, 70, 66, 0, 60, 0, 0, 127, 0, 209, 177, 0, 0, 70, 66, 0, 60, 0, 0, 127, 0, 93, 176, 10, 41, 70, 66, 0, 60, 0, 0, 127, 0, 93, 48, 10, 41, 70, 66, 0, 60, 0, 130, 248, 0, 33, 48, 39, 39, 162, 66, 0, 60, 0, 130, 248, 0, 49, 46, 39, 39, 162, 66, 0, 60, 0, 130, 248, 0, 209, 49, 10, 41, 70, 66, 0, 60, 0, 130, 248, 0, 33, 172, 39, 47, 162, 66, 0, 60, 196, 105, 35, 0, 209, 177, 184, 46, 70, 66, 0, 60, 196, 105, 35, 0, 33, 176, 196, 44, 162, 66, 0, 60, 196, 105, 35, 0, 209, 173, 10, 49, 70, 66, 0, 60, 196, 105, 35, 0, 61, 171, 164, 40, 221, 66, 0, 60, 0, 0, 0, 0, 61, 171, 164, 40, 221, 66, 0, 60, 0, 0, 0, 0, 49, 174, 39, 43, 162, 66, 0, 60, 119, 0, 215, 0, 61, 171, 164, 40, 221, 66, 0, 60, 119, 0, 215, 0, 49, 174, 39, 39, 162, 66, 0, 60, 119, 0, 215, 0, 33, 172, 196, 44, 162, 66, 0, 60, 126, 0, 248, 0, 33, 172, 39, 47, 162, 66, 0, 60, 126, 0, 248, 0, 61, 171, 164, 40, 221, 66, 0, 60, 126, 0, 248, 0, 49, 174, 39, 43, 162, 66, 0, 60, 60, 152, 218, 0, 33, 172, 196, 44, 162, 66, 0, 60, 60, 152, 218, 0, 61, 171, 164, 40, 221, 66, 0, 60, 60, 152, 218, 0, 33, 172, 39, 47, 162, 66, 0, 60, 202, 94, 65, 0, 33, 176, 196, 44, 162, 66, 0, 60, 202, 94, 65, 0, 61, 171, 164, 40, 221, 66, 0, 60, 202, 94, 65, 0, 61, 43, 164, 40, 221, 66, 0, 60, 0, 0, 0, 0, 61, 43, 164, 40, 221, 66, 0, 60, 0, 0, 0, 0, 33, 48, 196, 44, 162, 66, 0, 60, 54, 94, 65, 0, 33, 44, 39, 47, 162, 66, 0, 60, 54, 94, 65, 0, 61, 43, 164, 40, 221, 66, 0, 60, 54, 94, 65, 0, 33, 44, 196, 44, 162, 66, 0, 60, 196, 152, 218, 0, 49, 46, 39, 43, 162, 66, 0, 60, 196, 152, 218, 0, 61, 43, 164, 40, 221, 66, 0, 60, 196, 152, 218, 0, 33, 48, 196, 44, 162, 66, 0, 60, 107, 0, 67, 0, 61, 43, 164, 40, 221, 66, 0, 60, 107, 0, 67, 0, 33, 48, 39, 39, 162, 66, 0, 60, 107, 0, 67, 0, 33, 44, 39, 47, 162, 66, 0, 60, 130, 0, 248, 0, 33, 44, 196, 44, 162, 66, 0, 60, 130, 0, 248, 0, 61, 43, 164, 40, 221, 66, 0, 60, 130, 0, 248, 0 ),
"array_index_data": PoolByteArray( 0, 0, 2, 0, 1, 0, 0, 0, 1, 0, 3, 0, 4, 0, 6, 0, 5, 0, 7, 0, 4, 0, 5, 0, 8, 0, 7, 0, 5, 0, 9, 0, 11, 0, 10, 0, 12, 0, 9, 0, 10, 0, 13, 0, 15, 0, 14, 0, 13, 0, 14, 0, 16, 0, 17, 0, 19, 0, 18, 0, 17, 0, 18, 0, 20, 0, 21, 0, 23, 0, 22, 0, 21, 0, 22, 0, 24, 0, 25, 0, 27, 0, 26, 0, 25, 0, 26, 0, 28, 0, 29, 0, 25, 0, 28, 0, 30, 0, 32, 0, 31, 0, 33, 0, 30, 0, 31, 0, 12, 0, 10, 0, 34, 0, 35, 0, 37, 0, 36, 0, 38, 0, 35, 0, 36, 0, 38, 0, 36, 0, 39, 0, 40, 0, 42, 0, 41, 0, 40, 0, 41, 0, 43, 0, 44, 0, 46, 0, 45, 0, 47, 0, 44, 0, 45, 0, 48, 0, 50, 0, 49, 0, 48, 0, 49, 0, 51, 0, 52, 0, 54, 0, 53, 0, 55, 0, 52, 0, 53, 0, 56, 0, 58, 0, 57, 0, 56, 0, 57, 0, 59, 0, 60, 0, 62, 0, 61, 0, 60, 0, 61, 0, 63, 0, 64, 0, 66, 0, 65, 0, 67, 0, 64, 0, 65, 0, 68, 0, 70, 0, 69, 0, 68, 0, 69, 0, 71, 0, 72, 0, 74, 0, 73, 0, 72, 0, 73, 0, 75, 0, 76, 0, 78, 0, 77, 0, 76, 0, 77, 0, 79, 0, 80, 0, 82, 0, 81, 0, 83, 0, 80, 0, 81, 0, 84, 0, 86, 0, 85, 0, 87, 0, 84, 0, 85, 0, 88, 0, 90, 0, 89, 0, 91, 0, 93, 0, 92, 0, 94, 0, 96, 0, 95, 0, 97, 0, 94, 0, 95, 0, 98, 0, 100, 0, 99, 0, 98, 0, 99, 0, 101, 0, 102, 0, 104, 0, 103, 0, 102, 0, 103, 0, 105, 0, 106, 0, 108, 0, 107, 0, 109, 0, 111, 0, 110, 0, 112, 0, 109, 0, 110, 0, 113, 0, 115, 0, 114, 0, 113, 0, 114, 0, 116, 0, 117, 0, 119, 0, 118, 0, 120, 0, 117, 0, 118, 0, 121, 0, 123, 0, 122, 0, 121, 0, 122, 0, 124, 0, 125, 0, 127, 0, 126, 0, 128, 0, 125, 0, 126, 0, 129, 0, 131, 0, 130, 0, 132, 0, 134, 0, 133, 0, 132, 0, 133, 0, 135, 0, 136, 0, 138, 0, 137, 0, 136, 0, 137, 0, 139, 0, 140, 0, 142, 0, 141, 0, 143, 0, 140, 0, 141, 0, 144, 0, 146, 0, 145, 0, 144, 0, 145, 0, 147, 0, 148, 0, 150, 0, 149, 0, 151, 0, 148, 0, 149, 0, 152, 0, 152, 0, 152, 0, 153, 0, 153, 0, 153, 0, 154, 0, 156, 0, 155, 0, 157, 0, 159, 0, 158, 0, 160, 0, 162, 0, 161, 0, 163, 0, 165, 0, 164, 0, 166, 0, 166, 0, 166, 0, 167, 0, 167, 0, 167, 0, 168, 0, 170, 0, 169, 0, 171, 0, 173, 0, 172, 0, 174, 0, 176, 0, 175, 0, 177, 0, 179, 0, 178, 0, 180, 0, 0, 0, 181, 0, 181, 0, 0, 0, 182, 0, 183, 0, 185, 0, 184, 0, 186, 0, 183, 0, 184, 0, 186, 0, 184, 0, 187, 0, 188, 0, 10, 0, 189, 0, 190, 0, 188, 0, 189, 0, 191, 0, 193, 0, 192, 0, 191, 0, 192, 0, 194, 0, 195, 0, 197, 0, 196, 0, 195, 0, 196, 0, 198, 0, 199, 0, 201, 0, 200, 0, 202, 0, 199, 0, 200, 0, 203, 0, 205, 0, 204, 0, 203, 0, 204, 0, 206, 0, 207, 0, 203, 0, 206, 0, 208, 0, 210, 0, 209, 0, 211, 0, 208, 0, 209, 0, 212, 0, 214, 0, 213, 0, 215, 0, 217, 0, 216, 0, 218, 0, 215, 0, 216, 0, 218, 0, 216, 0, 219, 0, 220, 0, 222, 0, 221, 0, 223, 0, 220, 0, 221, 0, 224, 0, 226, 0, 225, 0, 224, 0, 225, 0, 227, 0, 228, 0, 230, 0, 229, 0, 231, 0, 228, 0, 229, 0, 232, 0, 234, 0, 233, 0, 235, 0, 232, 0, 233, 0, 236, 0, 238, 0, 237, 0, 239, 0, 236, 0, 237, 0, 240, 0, 242, 0, 241, 0, 243, 0, 240, 0, 241, 0, 244, 0, 246, 0, 245, 0, 244, 0, 245, 0, 247, 0, 248, 0, 250, 0, 249, 0, 251, 0, 248, 0, 249, 0, 252, 0, 254, 0, 253, 0, 252, 0, 253, 0, 255, 0, 0, 1, 2, 1, 1, 1, 3, 1, 0, 1, 1, 1, 4, 1, 6, 1, 5, 1, 4, 1, 5, 1, 7, 1, 8, 1, 10, 1, 9, 1, 8, 1, 9, 1, 11, 1, 12, 1, 14, 1, 13, 1, 15, 1, 17, 1, 16, 1, 18, 1, 20, 1, 19, 1, 18, 1, 19, 1, 21, 1, 22, 1, 24, 1, 23, 1, 25, 1, 22, 1, 23, 1, 26, 1, 27, 1, 8, 1, 11, 1, 26, 1, 8, 1, 28, 1, 30, 1, 29, 1, 31, 1, 33, 1, 32, 1, 31, 1, 32, 1, 34, 1, 35, 1, 37, 1, 36, 1, 38, 1, 35, 1, 36, 1, 39, 1, 41, 1, 40, 1, 39, 1, 40, 1, 42, 1, 43, 1, 45, 1, 44, 1, 46, 1, 43, 1, 44, 1, 128, 0, 126, 0, 47, 1, 48, 1, 128, 0, 47, 1, 49, 1, 51, 1, 50, 1, 52, 1, 54, 1, 53, 1, 55, 1, 52, 1, 53, 1, 56, 1, 58, 1, 57, 1, 59, 1, 56, 1, 57, 1, 60, 1, 62, 1, 61, 1, 63, 1, 60, 1, 61, 1, 64, 1, 66, 1, 65, 1, 64, 1, 65, 1, 67, 1, 68, 1, 70, 1, 69, 1, 68, 1, 69, 1, 71, 1, 72, 1, 72, 1, 72, 1, 73, 1, 73, 1, 73, 1, 74, 1, 76, 1, 75, 1, 77, 1, 79, 1, 78, 1, 80, 1, 82, 1, 81, 1, 83, 1, 85, 1, 84, 1, 86, 1, 86, 1, 86, 1, 87, 1, 87, 1, 87, 1, 88, 1, 90, 1, 89, 1, 91, 1, 93, 1, 92, 1, 94, 1, 96, 1, 95, 1, 97, 1, 99, 1, 98, 1 ),
"blend_shape_data": [  ],
"format": 98051,
"index_count": 528,
"material": ExtResource( 1 ),
"primitive": 4,
"skeleton_aabb": [  ],
"vertex_count": 356
}

[node name="reg_beam_turret" type="Spatial"]

[node name="base" type="MeshInstance" parent="."]
transform = Transform( 1, 0, 0, 0, 1, 0, 0, 0, 1, 0, 0.974328, 0 )
mesh = SubResource( 1 )
material/0 = null

[node name="head" type="MeshInstance" parent="."]
transform = Transform( -1, 0, -3.25841e-07, 0, 1, 0, 3.25841e-07, 0, -1, 0, 2.97503, 0 )
mesh = SubResource( 2 )
material/0 = null
material/1 = null

[node name="beam_turret-barrel" type="Spatial" parent="head"]
transform = Transform( -1, 0, 3.25841e-07, 0, 1, 0, -3.25841e-07, 0, -1, 0, -0.69857, 0 )

[node name="fire_pos" type="Position3D" parent="head/beam_turret-barrel"]
transform = Transform( 1, 0, 0, 0, 1, 0, 0, 0, 1, 0, 0, -3.08921 )

[node name="barrel" type="MeshInstance" parent="head/beam_turret-barrel"]
transform = Transform( -1, 0, -3.25841e-07, 0, 1, 0, 3.25841e-07, 0, -1, 0, 0, 0 )
mesh = SubResource( 3 )
material/0 = null
material/1 = null
