[gd_resource type="StyleBoxFlat" format=2]

[resource]
bg_color = Color( 0.0714111, 0.703125, 0, 1 )
border_width_left = 4
border_width_top = 4
border_width_right = 4
border_width_bottom = 4
border_color = Color( 0.8, 0.8, 0.8, 0 )
