[gd_resource type="SpatialMaterial" format=2]

[resource]
resource_name = "red_energy"
flags_transparent = true
albedo_color = Color( 0.671875, 0.168565, 0, 1 )
roughness = 0.0
emission_enabled = true
emission = Color( 1.35326, 0.35867, 0, 1 )
emission_energy = 16.0
emission_operator = 0
emission_on_uv2 = false
